0.000000; 0.000000; -0.036882
0.100000; 0.098845; -0.039282
0.200000; 0.191028; -0.041438
0.300000; 0.271119; -0.043306
0.400000; 0.335705; -0.044842
0.500000; 0.383540; -0.046001
0.600000; 0.415178; -0.046739
0.700000; 0.432361; -0.047007
0.800000; 0.437412; -0.046758
0.900000; 0.432777; -0.045945
1.000000; 0.420735; -0.044518
1.100000; 0.403261; -0.042428
1.200000; 0.381983; -0.039628
1.300000; 0.358200; -0.036068
1.400000; 0.332922; -0.031699
1.500000; 0.306921; -0.026474
1.600000; 0.280779; -0.020346
1.700000; 0.254927; -0.013267
1.800000; 0.229681; -0.005193
1.900000; 0.205271; 0.003919
2.000000; 0.181859; 0.014112
2.100000; 0.159558; 0.025425
2.200000; 0.138441; 0.037895
2.300000; 0.118554; 0.051554
2.400000; 0.099921; 0.066431
2.500000; 0.082548; 0.082548
2.600000; 0.066431; 0.099921
2.700000; 0.051554; 0.118554
2.799999; 0.037895; 0.138441
2.899999; 0.025425; 0.159558
2.999999; 0.014112; 0.181859
3.099999; 0.003919; 0.205271
3.199999; -0.005193; 0.229681
3.299999; -0.013267; 0.254927
3.399999; -0.020346; 0.280779
3.499999; -0.026474; 0.306921
3.599999; -0.031699; 0.332922
3.699999; -0.036068; 0.358200
3.799999; -0.039628; 0.381983
3.899998; -0.042428; 0.403261
3.999998; -0.044518; 0.420735
4.099998; -0.045945; 0.432777
4.199998; -0.046758; 0.437412
4.299998; -0.047007; 0.432361
4.399998; -0.046739; 0.415178
4.499998; -0.046001; 0.383540
4.599998; -0.044842; 0.335705
4.699998; -0.043306; 0.271119
4.799998; -0.041438; 0.191028
4.899998; -0.039282; 0.098845
4.999998; -0.036882; 0.000000
