0.000000; 0.000000
0.100000; 0.098845
0.200000; 0.191028
0.300000; 0.271119
0.400000; 0.335705
0.500000; 0.383540
0.600000; 0.415178
0.700000; 0.432361
0.800000; 0.437412
0.900000; 0.432777
1.000000; 0.420735
1.100000; 0.403261
1.200000; 0.381983
1.300000; 0.358200
1.400000; 0.332922
1.500000; 0.306921
1.600000; 0.280779
1.700000; 0.254927
1.800000; 0.229681
1.900000; 0.205271
2.000000; 0.181859
2.100000; 0.159558
2.200000; 0.138441
2.300000; 0.118554
2.400000; 0.099921
2.500000; 0.082548
2.600000; 0.066431
2.700000; 0.051554
2.799999; 0.037895
2.899999; 0.025425
2.999999; 0.014112
3.099999; 0.003919
3.199999; -0.005193
3.299999; -0.013267
3.399999; -0.020346
3.499999; -0.026474
3.599999; -0.031699
3.699999; -0.036068
3.799999; -0.039628
3.899998; -0.042428
3.999998; -0.044518
4.099998; -0.045945
4.199998; -0.046758
4.299998; -0.047007
4.399998; -0.046739
4.499998; -0.046001
4.599998; -0.044842
4.699998; -0.043306
4.799998; -0.041438
4.899998; -0.039282
4.999998; -0.036882
